<?xml version="1.0" encoding="UTF-8"?>
<svg width="42px" height="42px" viewBox="0 0 42 42" version="1.1" xmlns="http://www.w3.org/2000/svg" xmlns:xlink="http://www.w3.org/1999/xlink">
    <!-- Generator: sketchtool 48.2 (47327) - http://www.bohemiancoding.com/sketch -->
    <title>CBB85D6D-A71A-407D-916C-9B0E9B4011E9</title>
    <desc>Created with sketchtool.</desc>
    <defs></defs>
    <g id="ico/eng" stroke="none" stroke-width="1" fill="none" fill-rule="evenodd">
        <g id="professor" fill="#C7C7C7" fill-rule="nonzero">
            <g id="Layer_1">
                <g id="Group">
                    <path d="M4.17686719,36.5645273 C4.27062891,36.5645273 4.36512891,36.5456602 4.45618359,36.5057109 C6.68915625,35.5333945 10.4600508,35.0273438 15.6680508,35.0006836 L16.1734453,36.0128672 C16.3470234,36.3587109 16.7677617,36.5000508 17.1128672,36.3257344 C17.4586289,36.1528125 17.5993945,35.7328125 17.4257344,35.3870508 L16.726418,33.9870234 C16.6073906,33.749707 16.3652344,33.599918 16.0999453,33.599918 C10.3956562,33.599918 6.40352344,34.1304961 3.8968125,35.2218398 C3.54260156,35.3765508 3.38091797,35.7888398 3.53489062,36.143707 C3.64981641,36.4070273 3.90673828,36.5645273 4.17686719,36.5645273 Z" id="Shape"></path>
                    <path d="M40.5999727,37.8 L39.1999453,37.8 L39.1999453,34.2999727 C39.1999453,34.1145 39.125707,33.936 38.9948672,33.8050781 L34.7892891,29.6001563 C34.9208672,29.326418 35.0000273,29.0233945 35.0000273,28.6999453 C35.0000273,27.5421563 34.0578164,26.5999453 32.9000273,26.5999453 C31.7422383,26.5999453 30.8000273,27.5421563 30.8000273,28.6999453 C30.8000273,29.8577344 31.7422383,30.7999453 32.9000273,30.7999453 C33.2233945,30.7999453 33.5258438,30.7208672 33.7995,30.5899453 L37.8,34.589707 L37.8,37.8 L1.40002734,37.8 C0.627867188,37.8 0,38.4278672 0,39.2000273 L0,41.3000273 C0,41.6863945 0.313605469,42 0.699972656,42 C1.08633984,42 1.39994531,41.6863945 1.39994531,41.3000273 L1.39994531,39.2000273 L40.5999727,39.2000273 L40.5999727,41.3000273 C40.5999727,41.6863945 40.9128398,42 41.2999453,42 C41.6870508,42 41.999918,41.6863945 41.999918,41.3000273 L41.999918,39.2000273 C42,38.4278672 41.3713945,37.8 40.5999727,37.8 Z M32.9000273,29.4 C32.5136602,29.4 32.2000547,29.0857383 32.2000547,28.7000273 C32.2000547,28.3143164 32.5136602,28.0000547 32.9000273,28.0000547 C33.2863945,28.0000547 33.6,28.3143164 33.6,28.7000273 C33.6,29.0857383 33.2863945,29.4 32.9000273,29.4 Z" id="Shape"></path>
                    <path d="M9.99386719,20.9383945 C10.5041836,22.2669727 12.1925508,26.5509727 13.4176055,28.3884727 L13.5281836,28.5557344 C14.427,29.9186016 15.9305508,32.1998906 21,32.1998906 C26.0687109,32.1998906 27.573,29.9186016 28.4718164,28.5557344 L28.5823945,28.3884727 C29.8073672,26.5509727 31.4950781,22.2669727 32.0061328,20.9383945 C32.9203711,20.7109219 33.6,19.8834727 33.6,18.9 L33.6,16.1000273 C33.6,15.1872656 33.0147891,14.4087891 32.1999727,14.1197109 L32.1999727,10.5 C32.1999727,7.73636719 30.7446563,2.63131641 25.3616836,2.13847266 C25.3511836,1.80805078 25.242,1.54210547 25.1201836,1.34539453 C24.4321055,0.233132813 22.5001055,0 21,0 C8.54421094,0 8.4,11.781 8.4,11.9000273 C8.4,12.2863945 8.71286719,12.5993438 9.09857813,12.5993438 L9.09997266,12.5993438 C9.48568359,12.5993438 9.79855078,12.2871328 9.79994531,11.9007656 C9.80133984,11.4723984 9.95883984,1.40002734 20.999918,1.40002734 C22.9794961,1.40002734 23.7726563,1.82839453 23.929418,2.08178906 C23.9511563,2.11747266 24.0106289,2.21336719 23.8733906,2.48710547 C23.7648633,2.70407813 23.7767578,2.96173828 23.9041523,3.16821094 C24.0322852,3.37402734 24.2569688,3.50002734 24.4998633,3.50002734 C30.7061016,3.50002734 30.799125,10.2151055 30.7998633,10.5 L30.7998633,14.7 C30.7998633,15.0863672 31.1127305,15.3999727 31.4998359,15.3999727 C31.8862031,15.3999727 32.1998086,15.7142344 32.1998086,16.0999453 L32.1998086,18.9 C32.1998086,19.2857109 31.8862031,19.5999727 31.4998359,19.5999727 C31.2079688,19.5999727 30.9468633,19.7812617 30.8439141,20.0542617 C30.8236523,20.1095508 28.7565469,25.6031836 27.4173867,27.6114727 L27.302625,27.7850508 C26.4640195,29.0576836 25.3145977,30.7999453 20.9998359,30.7999453 C16.6843359,30.7999453 15.5356523,29.0576836 14.6970469,27.7850508 L14.5822852,27.6114727 C13.243207,25.6031836 11.1761016,20.1095508 11.1551016,20.0542617 C11.0528906,19.7812617 10.7917852,19.5999727 10.499918,19.5999727 C10.114207,19.5999727 9.79994531,19.2857109 9.79994531,18.9 L9.79994531,16.1000273 C9.79994531,15.9102891 9.87557813,15.7381055 9.99870703,15.6121055 C10.2528398,16.1826328 10.7715234,16.6957383 11.6430234,16.7825273 L14.038418,18.5787656 C14.2253672,19.9422891 15.3852891,21 16.8,21 L18.2000273,21 C19.7441836,21 21,19.7441836 21,18.2000273 C21,19.7441836 22.2558164,21 23.7999727,21 L25.2,21 C26.6139727,21 27.7752891,19.9422891 27.9615,18.5780273 L30.5199727,16.6600547 C30.8293945,16.4283164 30.8923945,15.9894492 30.66,15.6800273 C30.4282617,15.3706055 29.9893945,15.3069492 29.6799727,15.54 L27.8957109,16.8784219 C27.6290273,16.0251328 26.8407891,15.4000547 25.8999727,15.4000547 L23.1,15.4000547 C21.9422109,15.4000547 21,16.3422656 21,17.5000547 C21,16.3422656 20.0577891,15.4000547 18.9,15.4000547 L16.1000273,15.4000547 C15.1599492,15.4000547 14.3717109,16.0251328 14.1043711,16.8784219 L12.7687383,15.8767383 C13.3196602,14.5453711 13.8187383,12.5762109 13.9601602,11.1937383 C16.1665547,11.1545273 22.5498984,10.8850547 25.3897383,9.11260547 C26.0337656,11.5989727 28.1008711,13.6913438 28.2051328,13.7949492 C28.4787891,14.0686055 28.9212656,14.0686055 29.1949219,13.7949492 C29.4685781,13.5212109 29.4685781,13.0788164 29.1949219,12.8051602 C29.169,12.7792383 26.6000273,10.1815547 26.6000273,7.70002734 C26.6000273,7.38576563 26.3900273,7.10923828 26.0869219,7.02523828 C25.7852109,6.94123828 25.4611055,7.07002734 25.3001602,7.3395 C24.2809219,9.03697266 17.6694492,9.80002734 13.3000547,9.80002734 C12.9136875,9.80002734 12.600082,10.1136328 12.600082,10.5 C12.600082,11.6361328 12.0631875,13.9055273 11.4920039,15.3020273 C11.2687148,15.1676602 11.2057148,14.9170547 11.2001367,14.7 C11.2001367,14.3136328 10.8865313,14.0000273 10.5001641,14.0000273 C9.342375,14.0000273 8.40016406,14.9422383 8.40016406,16.1000273 L8.40016406,18.9 C8.4,19.8834727 9.07971094,20.7109219 9.99386719,20.9383945 Z M22.4000273,17.4999727 C22.4000273,17.1142617 22.7136328,16.8 23.1,16.8 L25.8999727,16.8 C26.2863398,16.8 26.5999453,17.1142617 26.5999453,17.4999727 L26.5999453,18.1999453 C26.5999453,18.9720234 25.9720781,19.5999727 25.199918,19.5999727 L23.7998906,19.5999727 C23.0278125,19.5999727 22.3998633,18.9721055 22.3998633,18.1999453 L22.3998633,17.4999727 L22.4000273,17.4999727 Z M15.3999727,17.4999727 C15.3999727,17.1142617 15.7142344,16.8 16.0999453,16.8 L18.9,16.8 C19.2857109,16.8 19.5999727,17.1142617 19.5999727,17.4999727 L19.5999727,18.1999453 C19.5999727,18.9720234 18.9721055,19.5999727 18.1999453,19.5999727 L16.8,19.5999727 C16.0279219,19.5999727 15.3999727,18.9721055 15.3999727,18.1999453 L15.3999727,17.4999727 Z" id="Shape"></path>
                    <path d="M24.4992891,25.2021328 C24.5000273,24.8164219 24.1878164,24.5021602 23.8021055,24.5000273 C23.7888164,24.5000273 22.5371836,24.486 21.3128672,23.8735547 C21.1161562,23.7755273 20.8837617,23.7755273 20.6870508,23.8735547 C19.4627344,24.486082 18.2104453,24.5000273 18.1999453,24.5000273 C17.8135781,24.5000273 17.4999727,24.8136328 17.4999727,25.2 C17.4999727,25.5863672 17.8135781,25.8999727 18.1999453,25.8999727 C18.259418,25.8999727 19.5817617,25.8922617 20.999918,25.2721055 C22.417418,25.8922617 23.740418,25.8999727 23.7998906,25.8999727 C24.1856836,25.8999727 24.4978945,25.5877617 24.4992891,25.2021328 Z" id="Shape"></path>
                    <path d="M25.8979219,33.6287109 C25.6361602,33.6301055 25.3960547,33.7771055 25.2762891,34.0108945 L24.5763164,35.3814727 C24.4006055,35.7258398 24.5378437,36.1479727 24.8815547,36.3236836 C24.9830273,36.3754453 25.092293,36.3999727 25.1993437,36.3999727 C25.4541328,36.3999727 25.6998164,36.2606836 25.8237656,36.0184453 L26.3285039,35.0286563 C30.1546875,35.0391563 33.2361094,35.3254453 35.4942656,35.8798945 C35.8708711,35.973 36.2488711,35.7427383 36.340582,35.3675273 C36.4329492,34.9916602 36.204082,34.6129219 35.8282148,34.5205547 C33.3767109,33.9177891 30.0517383,33.6041836 25.8979219,33.6287109 Z" id="Shape"></path>
                    <path d="M20.3000273,34.2999727 L20.3000273,35.7 C20.3000273,36.0863672 20.6136328,36.3999727 21,36.3999727 C21.3863672,36.3999727 21.6999727,36.0863672 21.6999727,35.7 L21.6999727,34.2999727 C21.6999727,33.9136055 21.3863672,33.6 21,33.6 C20.6136328,33.6 20.3000273,33.9136055 20.3000273,34.2999727 Z" id="Shape"></path>
                    <path d="M20.3000273,26.6000273 C19.9136602,26.6000273 19.6000547,26.9136328 19.6000547,27.3 C19.6000547,27.6863672 19.9136602,27.9999727 20.3000273,27.9999727 L21.7000547,27.9999727 C22.0871602,27.9999727 22.4000273,27.6863672 22.4000273,27.3 C22.4000273,26.9136328 22.0871602,26.6000273 21.7000547,26.6000273 L20.3000273,26.6000273 Z" id="Shape"></path>
                </g>
            </g>
        </g>
    </g>
</svg>