<?xml version="1.0" encoding="UTF-8"?>
<svg width="16px" height="8px" viewBox="0 0 16 8" version="1.1" xmlns="http://www.w3.org/2000/svg" xmlns:xlink="http://www.w3.org/1999/xlink">
    <!-- Generator: sketchtool 48.2 (47327) - http://www.bohemiancoding.com/sketch -->
    <title>D12F5BC8-FF1A-4AE8-BE06-C266C994BBDC</title>
    <desc>Created with sketchtool.</desc>
    <defs></defs>
    <g id="1" stroke="none" stroke-width="1" fill="none" fill-rule="evenodd">
        <g id="Group-5-Copy-2" transform="translate(7.500000, 4.000000) rotate(-270.000000) translate(-7.500000, -4.000000) translate(4.500000, -3.500000)" stroke="#ffffff">
            <polyline id="Path-2" points="0.245707165 3.22338867 3 0.219116211 5.64128117 3.22338867"></polyline>
            <path d="M3.09851074,1.09912109 L3.09851074,14.5339355" id="Line" stroke-linecap="square"></path>
        </g>
    </g>
</svg>